33.061542,-97.214657
33.059733,-97.216806
33.054302,-97.216464
33.053495,-97.215475
33.059852,-97.215757
33.059682,-97.214807
33.052804,-97.214567
33.052210,-97.213728
33.059381,-97.213938
33.059066,-97.213035
33.051996,-97.213019
33.061542,-97.214657